id,latitude,longitude,name,verified,country
1,41.92991,19.216126,Zlatnik,yes,MNE
2,42.440723,19.237213,Zlatnik Terminal Klub,no,MNE
3,42.437138,19.28263,ZLATNIK KLADINICA,no,MNE
4,43.033772,19.746448,Casino Zlatnik,no,MNE
5,43.029484,19.735491,Zlatnik,no,MNE
6,42.84508,19.873718,Admiral Club,no,MNE
7,42.776706,18.94333,Casino Volcano,no,MNE
8,42.431542,18.696828,AUTOMAT CASINO WIN TIVAT,no,MNE
9,42.422016,18.711156,Casino Volcano,no,MNE
10,42.430794,18.698721,Automat Casino ROYAL,no,MNE
11,42.099241,19.09954,Admiral Club,no,MNE
12,42.451672,18.571887,Admiral Club Zelenika,no,MNE
13,42.439919,19.23679,Meridian kladionica,no,MNE
14,41.930764,19.208866,Casino Volcano,no,MNE
15,42.514204,18.695058,Volcano Betting,no,MNE
16,42.459466,18.515787,Automat Casino Royal,no,MNE
17,42.453719,18.654644,DUTCH Casino 2,no,MNE
18,42.291461,18.842402,Automat Club Royal,no,MNE
19,42.20569,18.941228,El Grande Casino,no,MNE
20,42.421119,18.770889,Casino CATTARO,no,MNE
21,42.36282,19.327802,LV BET,no,MNE
22,42.332105,19.220871,Admiral Club Zeta,no,MNE
23,42.282211,18.865897,Merit Casino Royal Splendid,no,MNE
24,42.393518,18.91851,Casino Volcano,no,MNE
25,42.365893,19.329183,Casino Volcano,no,MNE
26,42.449347,19.25927,Casno Volcano,no,MNE
27,42.435465,19.27624,Admiral Club,no,MNE
28,42.424642,19.254207,Admiral Club,no,MNE
29,42.281972,18.879139,Casino Queen of Montenegro,no,MNE
30,42.443669,19.248868,Casino Volcano,no,MNE
31,42.438794,19.236546,Automat Club Royal,no,MNE
32,42.440999,19.261685,Player's Club,no,MNE
33,42.440996,19.263739,Casino Volcano,no,MNE
34,42.439026,19.263157,Merit Casino Montenegro,no,MNE
35,42.098602,19.098225,Zlatnik,no,MNE
36,42.777392,18.949427,Volcano betting,no,MNE
37,42.290189,18.846832,Zlatnik,no,MNE
38,42.452519,19.230132,Lob,no,MNE
39,42.440657,19.235611,Wintorius Bet,no,MNE
40,42.455015,19.263699,Volkanobet,no,MNE
41,42.439372,19.236542,Automat klub,no,MNE
42,42.434118,19.259708,ADMIRAL BET,no,MNE
43,42.438447,19.2357,Apex Casino,no,MNE
44,42.438845,19.236688,Admiral Club,no,MNE
45,42.437388,19.2385,Casino Volcano,no,MNE
46,42.441146,19.251703,Casino Volcano,no,MNE
47,42.096869,19.095562,Admiral Club Bar 2,no,MNE
48,41.930031,19.212517,MaxBet Slot,no,MNE
49,42.083468,19.108327,Sporting Bookmakeres,no,MNE
50,42.290269,18.851007,Metbet,no,MNE
51,42.435187,18.766562,HatBet Kotor Shop 1,no,MNE
52,42.292109,18.842985,HatBet Budva Shop 1,no,MNE
53,42.287312,18.851688,HatBet Budva Shop 2,no,MNE
54,42.269317,18.894173,Lob Bet,no,MNE
55,42.107874,19.093367,Kladionica Meridianbet,no,MNE
56,42.099548,19.099522,HatBet Bar Shop 1,no,MNE
57,42.28734,18.852185,MaxBet Kladionica,no,MNE
58,42.207008,18.939872,Volcano Betting,no,MNE
59,42.292536,18.84237,LOBBET,no,MNE
60,42.45509,18.558972,Volcano,no,MNE
61,42.438393,18.765847,BETTING VOLCANO,no,MNE
62,42.453947,18.653468,MaxBet Kladionica,no,MNE
63,42.389832,18.924879,Lob Bet - Cetinje I - Bajova,no,MNE
64,42.292737,18.84331,Volcano Betting,no,MNE
65,42.288994,18.841253,Lob bet,no,MNE
66,42.292714,18.8433,Zlatnik,no,MNE
67,42.283769,18.861981,Sbbet,no,MNE
68,42.291607,18.842502,SBBET,no,MNE
69,42.28486,18.838212,VOLCANO BETTING,no,MNE
70,42.291783,18.842666,ADMERAL BET,no,MNE
71,42.279527,18.882531,SBBET,no,MNE
72,42.394267,18.92029,Lob Bet - Cetinje II - Bajova,no,MNE
73,42.388614,18.924955,Lob bet,no,MNE
74,42.429132,18.698764,BETTING VOLCANO,no,MNE
75,42.450885,18.547892,Vulcano betting,no,MNE
76,42.429592,18.699854,MaxBet Kladionica,no,MNE
77,42.441147,18.691712,Kladionica Sporting,no,MNE
78,42.440717,18.694321,Kladionica Admiral Bet,no,MNE
79,42.458171,18.525583,MaxBet Kladionica,no,MNE
80,42.427697,18.770635,Lob Bet,no,MNE
81,42.429478,18.699688,Lob bet,no,MNE
82,42.430428,18.698537,Kladionica Premier,no,MNE
83,42.459562,18.515639,Lob bet,no,MNE
84,42.775066,18.955257,Premier,no,MNE
85,43.15627,19.121289,Metbet,no,MNE
86,43.358647,19.348867,Betting volcano,no,MNE
87,43.357173,19.356757,MaxBet Kladionica,no,MNE
88,43.355894,19.358357,Lob bet,no,MNE
89,42.845107,19.874435,Casino Zlatnik,no,MNE
90,42.845237,19.872569,Lob bet,no,MNE
91,43.035068,19.749831,Lob Bet - Bijelo Polje II - Živka Žižića,no,MNE
92,43.032593,19.747086,Volcano bet,no,MNE
93,43.045157,19.776242,SBbet Kladionica,no,MNE
94,43.044799,19.77608,Premium Kladionica,no,MNE
95,43.032602,19.746743,Lob bet,no,MNE
96,43.027257,19.733853,Kladionica Volcano,no,MNE
97,42.77772,18.946179,Hemingway,no,MNE
98,42.823942,19.521724,Kladionida LOB KOLASIN,no,MNE
99,42.773831,18.956988,SBbet,no,MNE
100,42.823085,19.521601,Kladinica Premier 2,no,MNE
101,42.774965,18.963091,Kladionica Olimp,no,MNE
102,42.96234,19.579094,Kladionica Zlatnik,no,MNE
103,42.771888,18.948148,Tombola Skver,no,MNE
104,42.775929,18.963496,Kladionica Colosseum,no,MNE
105,43.156124,19.120978,Kladionica Volcano,no,MNE
106,42.775204,18.949982,Terminal Club Zlatnik 2,no,MNE
107,42.823898,19.522232,Premier Kladionica,no,MNE
108,42.777147,18.950483,Terminal Club Zlatnik,no,MNE
109,42.779008,18.954447,Sporting,no,MNE
110,42.780477,18.948295,MaxBet Kladionica,no,MNE
111,42.778642,18.954244,Premier,no,MNE
112,42.77396,18.950395,Lob Bet - Nikšić XI - Novice Cerovića,no,MNE
113,42.777214,18.950899,Lob bet,no,MNE
114,42.772058,18.948211,Lob Bet,no,MNE
115,42.101662,19.099827,Zlatnik,no,MNE
116,42.110886,19.088202,Volcano betting,no,MNE
117,41.930088,19.214616,Lob bet,yes,MNE
118,42.035044,19.142875,AdmiralBet,no,MNE
119,42.10148,19.101701,Lob bet,no,MNE
120,42.419858,18.769802,Kladionica Meridianbet,no,MNE
121,42.433526,19.243397,Lob kladionica,no,MNE
122,42.366836,19.328649,Kladionica Meridian,no,MNE
123,42.425642,19.255171,Kladionica,no,MNE
124,42.432992,19.267279,Volcano Kladionica,no,MNE
125,42.434468,19.259722,Lob kladionica,no,MNE
126,42.433577,19.267438,Lob kladionica,no,MNE
127,42.365964,19.329895,Zlatnik Kladionica,no,MNE
128,42.365926,19.329238,Kladionica SBbet,no,MNE
129,42.33517,19.230678,Volcano kladionica,no,MNE
130,42.329711,19.220251,Kladionica SBbet,no,MNE
131,42.365638,19.329924,MaxBet Kladionica,no,MNE
132,42.368942,19.312891,MaxBet Kladionica,no,MNE
133,42.429232,18.698988,Kladionica "Planet win 365",no,MNE
134,42.289522,18.838519,MaxBet Kladionica,no,MNE
135,42.424889,18.771,MaxBet Kladionica,no,MNE
136,42.430307,18.696046,LOB Kladionica,no,MNE
137,42.431039,18.76765,MaxBet Kladionica,no,MNE
138,42.430917,18.698694,MaxBet Kladionica,no,MNE
139,42.434084,19.267154,Admiral Club,no,MNE
140,42.432753,19.269014,Casino Volcano,no,MNE
141,42.28765,18.85225,Meridianbet,no,MNE
142,42.420838,19.248756,Vulcano Kladionica,no,MNE
143,42.435002,19.260337,Kladionica Meridian,no,MNE
144,42.422305,19.251205,Kladionica Meridian,no,MNE
145,42.41372,19.223504,Premier,no,MNE
146,42.419268,19.24539,Olimp Kladionica,no,MNE
147,42.4208,19.24869,Kladionica Sansa,no,MNE
148,42.429839,19.272275,Lobbed.me,no,MNE
149,42.434989,19.27655,ZLATNIK KLADIONICA,no,MNE
150,42.435475,19.280159,Lob bet,no,MNE
151,42.435921,19.260202,Lob kladionica,no,MNE
152,42.435173,19.275598,Kladionica Meridianbet,no,MNE
153,42.427027,19.27536,Olimp Kladionice,no,MNE
154,42.426053,19.25934,Volcano,yes,MNE
155,42.433219,19.263323,Kladionica SBbet,yes,MNE
156,42.435173,19.294062,Kladionica SBbet,no,MNE
157,42.433453,19.263421,Volcano,yes,MNE
158,42.430456,19.263945,Olimp Kladionica,no,MNE
159,42.433265,19.276339,Lob kladionica,no,MNE
160,42.440271,19.247043,Meridianpay,no,MNE
161,42.44005,19.236875,Kladionica Meridian,no,MNE
162,42.435164,19.275992,Meridianbet,no,MNE
163,42.429979,18.700086,Kladionica Meridianbet,no,MNE
164,42.387515,18.925729,Meridianbet Kladionica,no,MNE
165,42.425836,19.246763,Lob Kladionica,no,MNE
166,42.427583,19.247547,Lob kladionica,no,MNE
167,42.434887,19.280094,Olimp Kladionica,no,MNE
168,42.43042,19.259364,Zlatnik Kladionica,no,MNE
169,42.43459,19.260029,Kladionica SBbet,no,MNE
170,42.426929,19.275713,SBbet kladionica,no,MNE
171,42.435042,19.276162,SBbet kladionica,no,MNE
172,42.435879,19.291286,Lob kladionica,no,MNE
173,42.43558,19.28449,MaxBet Kladionica,no,MNE
174,42.426678,19.222184,Kladionica SBbet,no,MNE
175,42.426687,19.297543,Kladionica "Olimp",no,MNE
176,42.436154,19.26099,Casino Volcano,no,MNE
177,42.846512,19.872348,Kladionica Zlqtnik,no,MNE
178,42.84419,19.873444,MaxBet Kladionica,no,MNE
179,42.459651,18.516596,Kladionica Meridianbet,no,MNE
180,42.843364,19.873411,Kladionica Volkano,no,MNE
181,42.440802,19.263628,Zlatnik Casino,no,MNE
182,42.823899,19.521234,Kladionica Zlatnik,no,MNE
183,42.441037,18.691847,Kladionica Premier,no,MNE
184,42.777998,18.945993,MaxBet Kladionica,no,MNE
185,42.292682,18.838569,Lob kladionica,no,MNE
186,42.440411,19.237038,Lob kladionica,no,MNE
187,42.332689,19.220435,Lob kladionica,no,MNE
188,42.097248,19.095229,MaxBet Kladionica,no,MNE
189,42.098507,19.096446,Kladionica Meridianbet,no,MNE
190,42.097269,19.093025,Lob kladionica,no,MNE
191,42.289202,18.838624,Kladionica Meridianbet,no,MNE
192,42.778324,18.947683,Kladionica Premier,no,MNE
193,42.289323,18.839037,AdmiralBet kladionica,no,MNE
194,42.353371,19.213974,Kladionica Lob,no,MNE
195,42.773985,18.956995,Volcano Kladionica,no,MNE
196,42.440917,18.691591,Volcano Kladionica,no,MNE
197,42.514427,18.694801,MaxBet Kladionica,no,MNE
198,42.774752,18.947674,MaxBet Kladionica,no,MNE
199,42.770126,18.947462,MaxBet Kladionica Maršal,no,MNE
200,42.287076,18.851841,Kladionica Merdianbet,no,MNE
201,42.552142,19.105524,Admiral Bet,yes,MNE
202,42.551681,19.105193,Kladionica Zlatnik,no,MNE
203,42.551377,19.104201,Kladionica LOB,no,MNE
204,42.442426,19.265761,HatBet Podgorica 1,no,MNE
205,42.44066,19.251452,Lob kladionica,no,MNE
206,42.442132,19.261707,Zlatnik kladionica,no,MNE
207,42.441531,19.252309,Kladionica SBbet,no,MNE
208,42.292853,18.848407,Meridian,no,MNE
209,42.440755,19.23543,Kladionica SBbet,no,MNE
210,42.442319,19.246386,Kladionica SBbet,no,MNE
211,42.440972,19.263582,Lob kladionica,no,MNE
212,42.426472,19.26371,MaxBet Kladionica,no,MNE
213,42.430481,19.258651,Lob kladionica,no,MNE
214,42.446208,19.250222,Admiral,no,MNE
215,42.432869,19.282699,Lob kladionica,no,MNE
216,42.441806,19.263592,Kladionica SBbet,no,MNE
217,42.433468,19.263373,Lob kladionica,yes,MNE
218,42.361819,19.225581,Kladionica SBbet,no,MNE
219,42.366456,19.328788,Lob kladionica,no,MNE
220,42.358401,19.223502,Lob kladionica,no,MNE
221,42.464014,19.286159,Volcano,no,MNE
222,42.458508,19.27915,Kladionica SBbet,no,MNE
223,42.451431,19.240436,SBB,no,MNE
224,42.465508,19.296299,Lob kladionica,no,MNE
225,42.425966,19.259035,Lob kladionica,yes,MNE
226,42.448029,19.257034,Lob kladionica,no,MNE
227,42.428666,19.298777,Lob kladionica,no,MNE
228,42.444299,19.252747,Zlatnik terminal klub,no,MNE
229,42.448174,19.258343,Kladionica SBbet,no,MNE
230,42.425503,19.258767,Meridian,yes,MNE
231,42.427079,19.275282,Lob kladionica,no,MNE
232,42.443291,19.265389,Lob Bet - Podgorica - Centar ZG,no,MNE
233,42.445773,19.282468,Kladionica Premijer,no,MNE
234,42.443164,19.262736,Lob kladionica,no,MNE
235,42.446846,19.249466,Lob Bet - Podgorica - Dalmatinska,no,MNE
236,42.420878,19.248841,Kladionica SBbet,no,MNE
237,42.459504,19.278026,Lob bet,no,MNE
238,42.42498,19.252652,Kladionica SBbet,yes,MNE
239,42.444751,19.263565,Lob bet,yes,MNE
240,42.461744,19.293987,Lob kladionica,no,MNE
241,42.443106,19.262486,Kladionica Meridianbet,no,MNE
242,42.456957,19.267885,Kladionica Olimp,no,MNE
243,42.446411,19.283288,ADMIRAL BET,no,MNE
244,42.445365,19.281306,Kladionica SBbet,no,MNE
245,42.443376,19.263768,Premijer Kladionica,no,MNE
246,42.448041,19.25706,AdmiralBet kladionica,no,MNE
247,42.451902,19.234011,Lob Bet - Podgorica - Blok IX,no,MNE
248,42.449539,19.240161,MaxBet Kladionica,no,MNE
249,42.451454,19.226325,Kladionica SBbet,no,MNE
250,42.443798,19.252763,Lob kladionica,no,MNE
251,42.452504,19.230237,Šansa,no,MNE
252,42.45069,19.234382,SBbet/Sporting,yes,MNE
253,42.445819,19.249993,Admiral Bet,no,MNE
254,42.45345,19.230814,Olimp,no,MNE
255,42.442309,19.246393,ADMIRAL BET,no,MNE
256,42.444299,19.248655,Kladionica Meridianbet,no,MNE
257,42.447146,19.238869,LOB Kladionica,no,MNE
258,42.449381,18.574106,Kladionica Meridianbet,no,MNE
259,42.448038,19.288702,Kladionica Meridian,no,MNE
260,42.777175,18.95062,Kladionica Meridian,no,MNE
261,42.451592,18.572082,Kladionica Meridianbet,no,MNE
262,43.035151,19.749538,Kladionice Meridian,no,MNE
263,42.846716,19.871954,Kladionice Meridian,no,MNE
264,42.96341,19.578961,Kladionice Meridian,no,MNE
265,42.777571,18.961498,Kladionica Meridianbet,no,MNE
266,43.153511,19.12728,Kladionica Meridianbet,no,MNE
267,42.844993,19.873979,Kladionica Meridian Radomira Mitrovica bb,no,MNE
268,42.279904,18.836514,Meridianbet Betting,no,MNE
269,42.108908,19.093822,Kladionica Meridian,no,MNE
270,42.449374,19.240137,Kladionica Meridianbet,no,MNE
271,42.442287,19.24643,Kladionica Meridianbet,no,MNE
272,42.443304,19.249101,Kladionica Meridian,no,MNE
273,42.449479,19.240183,MERIDIAN,no,MNE
274,42.452481,19.234567,Kladionica Meridianbet,no,MNE
275,42.440927,19.23615,MaxBet Kladionica,no,MNE
276,42.438792,19.234528,Lob kladionica,no,MNE
277,42.437265,19.236670,Lob bet,yes,MNE
278,42.439917,19.236169,Premier kladionica,no,MNE
279,42.733861,19.7912,Lob Bet - Andrijevica,yes,MNE
280,43.033754,19.746565,Kladionica Volkano,no,MNE
281,42.100285,19.099284,MaxBet Kladionica,no,MNE
282,42.441137,19.251738,Betting Volcano,no,MNE
283,42.756726,18.955153,MaxBet Kladionica,no,MNE
284,42.434891,19.281315,MaxBet Kladionica,no,MNE
285,42.453458,18.539222,Kladionice Meridianbet,no,MNE
286,42.141679,19.047017,Admiral Bet,no,MNE
287,41.930431,19.211177,Admiral Atrium,yes,MNE
288,41.903593,19.303305,Apex Casino,no,MNE
289,42.434756,19.284206,Apex MNE,no,MNE
290,42.098316,19.096061,Apex,no,MNE
291,42.427069,19.275323,Sansa,no,MNE
292,42.098440,19.096545,Sansa,no,MNE
293,42.100380,19.100109,Sansa,no,MNE
294,42.384041,18.746011,Sansa,no,MNE
295,42.366014,19.329571,Sansa,no,MNE
296,42.426739,19.222922,Sansa,no,MNE
297,42.446371,19.254745,Sansa,no,MNE
298,42.444861,19.280670,Sansa,no,MNE
299,42.773121,18.949262,Sansa,no,MNE
300,42.778452,18.944182,Sansa,no,MNE
301,42.842611,20.167946,Sansa,no,MNE
302,42.962267,19.579460,Sansa,no,MNE
303,43.034725,19.747237,Sansa,no,MNE
304,43.356019,19.358831,Sansa,no,MNE
305,42.292212,18.838672,SBbet,no,MNE
306,42.288986,18.838867,SBbet,no,MNE
307,42.290902,18.84704,SBbet,no,MNE
308,42.285073,18.839312,SBbet,no,MNE
309,42.284139,18.837329,SBbet,no,MNE
310,42.287263,18.851993,SBbet,no,MNE
311,42.281203,18.83614,SBbet,no,MNE
312,42.307807,18.8027,SBbet,no,MNE
313,42.363792,18.756862,SBbet,no,MNE
314,42.206045,18.940794,SBbet,no,MNE
315,42.388137,18.925363,SBbet,no,MNE
316,42.393124,18.921624,SBbet,no,MNE
317,42.395548,18.923598,SBbet,no,MNE
318,42.418821,18.766797,SBbet,no,MNE
319,42.42153,18.763813,SBbet,no,MNE
320,42.425177,18.770993,SBbet,no,MNE
321,42.433941,18.767133,SBbet,no,MNE
322,42.4354,18.766564,SBbet,no,MNE
323,42.441768,18.769246,SBbet,no,MNE
324,42.430669,18.698741,SBbet,no,MNE
325,42.467398,18.764357,SBbet,no,MNE
326,42.441268,18.69159,SBbet,no,MNE
327,42.453548,18.654757,SBbet,no,MNE
328,42.514562,18.694747,SBbet,no,MNE
329,42.451374,18.572847,SBbet,no,MNE
330,42.112719,19.09144,SBbet,no,MNE
331,42.450953,18.547968,SBbet,no,MNE
332,42.100091,19.100165,SBbet,no,MNE
333,42.096465,19.095927,SBbet,no,MNE
334,42.453004,18.534094,SBbet,no,MNE
335,42.453968,18.530863,SBbet,no,MNE
336,42.459741,18.528301,SBbet,no,MNE
337,42.457562,18.525284,SBbet,no,MNE
337,42.092493,19.118973,SBbet,no,MNE
339,42.083535,19.108249,SBbet,no,MNE
340,42.459605,18.516601,SBbet,no,MNE
341,42.463182,18.512287,SBbet,no,MNE
342,42.455458,18.501457,SBbet,no,MNE
343,42.438397,19.23321,SBbet,no,MNE
344,42.552205,19.10551,SBbet,no,MNE
345,42.557143,19.104939,SBbet,no,MNE
346,42.425732,19.258912,SBbet,yes,MNE
347,42.446778,19.246349,SBbet,no,MNE
348,42.446272,19.250243,SBbet,no,MNE
349,42.44426,19.252727,SBbet,no,MNE
350,42.510782,19.19652,SBbet,no,MNE
351,42.433939,19.267125,SBbet,no,MNE
352,42.452818,19.288129,SBbet,no,MNE
353,42.461806,19.293908,SBbet,no,MNE
354,41.928905,19.206713,SBbet,no,MNE
355,41.930063,19.214880,SBbet,yes,MNE
356,42.75449,18.952372,SBbet,no,MNE
357,42.772655,18.948152,SBbet,no,MNE
358,42.774384,18.947028,SBbet,no,MNE
359,42.774004,18.956266,SBbet,no,MNE
360,42.777044,18.95112,SBbet,no,MNE
361,42.782667,18.915101,SBbet,no,MNE
362,42.779144,18.954633,SBbet,no,MNE
363,42.793082,18.935136,SBbet,no,MNE
364,42.826774,18.916723,SBbet,no,MNE
365,42.82298,19.521172,SBbet,no,MNE
366,42.963663,19.578694,SBbet,no,MNE
367,43.15366,19.127076,SBbet,no,MNE
368,42.842749,19.872516,SBbet,no,MNE
369,42.845395,19.87559,SBbet,no,MNE
370,43.032471,19.747385,SBbet,no,MNE
371,43.035855,19.747494,SBbet,no,MNE
372,43.036405,19.751457,SBbet,no,MNE
373,42.842669,20.165856,SBbet,no,MNE
374,43.353525,19.352469,SBbet,no,MNE
375,43.355499,19.358496,SBbet,no,MNE
376,43.357751,19.355197,SBbet,no,MNE
377,43.356868,19.362625,SBbet,no,MNE
378,42.823809,19.521923,Volcano,yes,MNE
379,42.822973,19.521166,Lob,yes,MNE
380,42.552235,19.104796,Lob,yes,MNE
381,42.551439,19.104081,Kazino Kajot,yes,MNE
382,42.551426,19.104999,Volcano,yes,MNE
383,42.551370,19.105272,Premijer,yes,MNE
384,42.552213,19.105627,Sporting,yes,MNE
385,41.930286,19.213187,Lob,no,MNE
386,41.927647,19.226358,Zlatnik,yes,MNE
387,41.930446,19.212663,Kojot Kazino,yes,MNE
388,41.927937,19.206163,Kojot Kazino,yes,MNE
389,41.930413,19.210921,Admiral casino,yes,MNE
390,41.930628,19.210958,Metbet Eurolotto,yes,MNE
391,42.425296,19.252775,Volcano,yes,MNE
392,42.433356,19.263336,AdmiralBet,yes,MNE
393,42.785575,18.955169,Premier,yes,MNE
394,42.448062,19.257033,Volcano,yes,MNE
395,42.102089,19.096929,Meridian,no,MNE
396,42.0971,19.095496,Meridian,no,MNE
397,42.097484,19.097175,Meridian,no,MNE
398,42.106203,19.090872,Meridian,no,MNE
399,42.838979,19.86691,Meridian,no,MNE
400,42.846732,19.86805,Meridian,no,MNE
401,42.842632,19.872971,Meridian,no,MNE
402,43.035311,19.748798,Meridian,no,MNE
403,43.035658,19.748069,Meridian,no,MNE
404,43.033682,19.748471,Meridian,no,MNE
405,42.290968,18.846922,Meridian,no,MNE
406,42.289093,18.838622,Meridian,no,MNE
407,42.291725,18.85093,Meridian,no,MNE
408,42.294246,18.843858,Meridian,no,MNE
409,42.280514,18.835731,Meridian,no,MNE
410,42.388529,18.924914,Meridian,no,MNE
411,42.453666,18.655827,Meridian,no,MNE
412,42.454125,18.539059,Meridian,no,MNE
413,42.455277,18.562572,Meridian,no,MNE
414,42.45852,18.525741,Meridian,no,MNE
415,42.45762,18.567764,Meridian,no,MNE
416,42.458908,18.513228,Meridian,no,MNE
417,42.461848,18.511779,Meridian,no,MNE
418,42.447175,18.765433,Meridian,no,MNE
419,42.418256,18.765442,Meridian,no,MNE
420,42.770860,18.947054,Meridian,no,MNE
421,42.77519,18.954587,Meridian,no,MNE
422,42.775697,18.951035,Meridian,no,MNE
423,42.773408,18.946148,Meridian,no,MNE
424,42.778333,18.967339,Meridian,no,MNE
425,43.356416,19.360465,Meridian,no,MNE
426,42.447204,19.243228,Meridian,no,MNE
427,42.448745,19.23924,Meridian,no,MNE
428,42.451375,19.233733,Meridian,no,MNE
429,42.437794,19.233727,Meridian,no,MNE
430,42.433595,19.263301,Royal,yes,MNE
431,42.450296,19.259459,Meridian,no,MNE
432,42.443028,19.26254,Meridian,no,MNE
434,42.426623,19.271106,Meridian,no,MNE
434,42.435807,19.260851,Meridian,no,MNE
435,42.444747,19.249224,Meridian,no,MNE
436,42.446824,19.253436,Meridian,no,MNE
437,42.422792,19.249136,Meridian,no,MNE
438,42.843013,20.167456,Meridian,no,MNE
439,42.429966,18.700522,Meridian,no,MNE
440,42.44142,18.694698,Meridian,no,MNE
441,41.930089,19.213868,Meridian,no,MNE
442,41.930694,19.208785,Meridian,no,MNE
443,43.154356,19.125328,Meridian,no,MNE
444,42.733417,19.792861,Admiral,yes,MNE
445,42.733482,19.792922,Volcano,yes,MNE
446,42.098409,19.096146,Admiral,yes,MNE
447,42.330820,19.220667,Olimp,yes,MNE
448,41.928856,19.223950,SBbet,yes,MNE
449,41.927269,19.228503,Volcano,yes,MNE
450,42.435870,19.275829,LOB,yes,MNE
451,42.435958,19.275877,Volcano,yes,MNE
452,42.436041,19.275920,Zlatnik,yes,MNE
453,42.435500,19.276148,,yes,MNE
454,42.288852,18.832432,Vulkano,yes,MNE
455,42.425133,19.252690,Lob,yes,MNE
456,42.425591,19.252984,12BET,yes,MNE
457,42.425107,19.252259,StarSports,yes,MNE
458,42.422804,19.217064,,yes,MNE
459,42.427974,19.215694,,yes,MNE
460,42.410465,19.198208,,yes,MNE
461,42.410327,19.197962,,yes,MNE
462,42.427303,19.274411,Admiral,no,MNE
463,42.441219,19.264962,Admiral,no,MNE
464,42.448938,19.237900,Lob,yes,MNE
465,42.450167,19.236382,Volcano,yes,MNE
466,42.450357,19.236497,AdmiralBet,yes,MNE
467,42.451386,19.235470,Volcano,no,MNE
468,42.451360,19.235550,Olimp,no,MNE
469,42.451330,19.235660,Premier,no,MNE
470,42.450962,19.234549,Meridian,yes,MNE
471,42.449319,19.240094,Premier,no,MNE
472,42.433134,19.263628,Zlatnik,yes,MNE
473,42.433084,19.263982,Olimp,yes,MNE
474,42.433742,19.262771,Admiral Atrium,yes,MNE
475,42.433942,19.262882,Automat Club,yes,MNE
476,42.434270,19.263067,Automat Club,yes,MNE
477,42.437847,19.233684,LV bet, yes,MNE